{
  "wonder": [
    {
      "id": "1",
      "name": "Food1",
      "title": "json-server",
      "imageUrl": "https://s359.kapook.com/pagebuilder/ffc8269b-89a4-46fa-a7a9-1ee5bf5594f8.jpg"
    },
    {
      "id": "2",
      "name": "Food2",
      "title": "json-server",
      "imageUrl": "https://img.wongnai.com/p/1968x0/2017/09/28/d22a93ad82c24256a13a7fdd787c7429.jpg"
    },
    {
      "id": "3",
      "name": "Food3",
      "title": "json-server",
      "imageUrl": "https://img.wongnai.com/p/1968x0/2018/12/11/54785cc9d37140a790fcff97dbf876d3.jpg"
    },
    {
      "id": "4",
      "name": "Food4",
      "title": "json-server",
      "imageUrl": "https://img.wongnai.com/p/1968x0/2018/09/01/6474d83387344b16b2be7deb23f8b2bb.jpg"
    },
    {
      "id": "5",
      "name": "Food5",
      "title": "json-server",
      "imageUrl": "https://img.wongnai.com/p/1968x0/2019/09/27/6401bf29ced245c199b2d8e7c7bc6bb2.jpg"
    }
  ]
}